Andrew’s Data Analysis Portfolio - Tidy Tuesday Exercise
…
# Find duplicate rows based on 'state' and 'name' columns and filter to keep only the first occurrence
ea_2023 <- ea_2023_raw[!duplicated(ea_2023_raw[c("state", "name")]), ]

# Print the resulting dataframe that has unique 'state' and 'name' pairs
print(ea_2023)

# A tibble: 807 × 10
   state name        lat   lon eclipse_1 eclipse_2 eclipse_3 eclipse_4 eclipse_5
   <chr> <chr>     <dbl> <dbl> <time>    <time>    <time>    <time>    <time>   
 1 AZ    Chilchin…  36.5 -110. 15:10:50  15:56:20  16:30:29  16:33:31  17:09:40 
 2 AZ    Chinle     36.2 -110. 15:11:10  15:56:50  16:31:21  16:34:06  17:10:30 
 3 AZ    Del Muer…  36.2 -109. 15:11:20  15:57:00  16:31:13  16:34:31  17:10:40 
 4 AZ    Dennehot…  36.8 -110. 15:10:50  15:56:20  16:29:50  16:34:07  17:09:40 
 5 AZ    Fort Def…  35.7 -109. 15:11:40  15:57:40  16:32:28  16:34:35  17:11:30 
 6 AZ    Kayenta    36.7 -110. 15:10:40  15:56:00  16:29:54  16:33:21  17:09:10 
 7 AZ    Lukachuk…  36.4 -109. 15:11:20  15:57:10  16:30:50  16:35:05  17:10:50 
 8 AZ    Many Far…  36.3 -110. 15:11:10  15:56:50  16:30:50  16:34:16  17:10:20 
 9 AZ    Nazlini    35.9 -109. 15:11:20  15:57:10  16:32:24  16:33:30  17:10:50 
10 AZ    Oljato-M…  37.0 -110. 15:10:40  15:56:00  16:29:25  16:33:38  17:09:10 
# ℹ 797 more rows
# ℹ 1 more variable: eclipse_6 <time>
…
combined_eclipse_data <- bind_rows(ea_2023, et_2024)

# Find duplicate rows based on 'state' and 'name' columns
duplicatesall <- combined_eclipse_data[duplicated(combined_eclipse_data[c("state", "name")]) | duplicated(combined_eclipse_data[c("state", "name")], fromLast = TRUE), ]

# Print the rows where 'state' and 'name' are duplicated
print(duplicatesall)

# A tibble: 112 × 14
   state name       lat    lon eclipse_1 eclipse_2 eclipse_3 eclipse_4 eclipse_5
   <chr> <chr>    <dbl>  <dbl> <time>    <time>    <time>    <time>    <time>   
 1 TX    Balcone…  29.5  -98.5 15:24:00  16:14:30  16:52:03  16:56:07  17:35:30 
 2 TX    Bandera   29.7  -99.1 15:23:20  16:13:40  16:50:40  16:55:15  17:34:10 
 3 TX    Barksda…  29.7 -100.  15:22:20  16:12:20  16:49:17  16:53:42  17:32:30 
 4 TX    Batesvi…  29.0  -99.6 15:23:20  16:13:40  16:51:30  16:54:47  17:34:20 
 5 TX    Big Wel…  28.6  -99.6 15:23:40  16:14:20  16:53:10  16:54:30  17:35:00 
 6 TX    Boerne    29.8  -98.7 15:23:30  16:14:00  16:51:35  16:55:14  17:34:50 
 7 TX    Bracket…  29.3 -100.  15:22:20  16:12:20  16:51:12  16:51:26  17:32:30 
 8 TX    Bulverde  29.8  -98.4 15:23:50  16:14:30  16:52:33  16:55:12  17:35:20 
 9 TX    Camp Wo…  29.7 -100.  15:22:20  16:12:30  16:49:25  16:53:46  17:32:40 
10 TX    Castle …  29.5  -98.5 15:24:00  16:14:40  16:52:09  16:56:02  17:35:30 
# ℹ 102 more rows
# ℹ 5 more variables: eclipse_6 <time>, start_time <Period>, end_time <Period>,
#   duration_minutes <dbl>, year <dbl>
…
