Andrew’s Data Analysis Portfolio - R Coding Exercise
…
Identifying years without missing values for infant mortality

#identify years with missing data using dplyr package
africadata %>%
  group_by(year) %>%
  summarize(missing_infant_mortality = sum(is.na(infant_mortality))) %>%
  filter(missing_infant_mortality > 0)

# A tibble: 23 × 2
    year missing_infant_mortality
   <int>                    <int>
 1  1960                       10
 2  1961                       17
 3  1962                       16
 4  1963                       16
 5  1964                       15
 6  1965                       14
 7  1966                       13
 8  1967                       11
 9  1968                       11
10  1969                        7
# ℹ 13 more rows
…
